{
	"Shader":"Box",
	"Mesh":"help.mesh",
	"Textures":
	[
		{
			"File":"help_normal.tga",
			"TileMode":"GL_CLAMP_TO_EDGE"
		}
	],
	"DepthTest":true,
	"Culling":true,
	"Blend":true,
	"Scale":[0.5, 0.5, 0.5],
	"Rotation":[0.0, 0.0, 0.0],
	"Position":[0.0, 0.0, 0.0]
}