{
	"Shader":"Sky",
	"Mesh":"Skybox.nfg",
	"CubeTextures":
	[
		{
			"File":"Box.tga",
			"TileMode":"GL_CLAMP_TO_EDGE"
		}
	],
	"DepthTest":true,
	"Culling":false,
	"Blend":false,
	"Scale":[0.5, 0.5, 0.5],
	"Rotation":[0.0, 0.0, 0.0],
	"Position":[0.0, 0.0, 0.0]
}